\relax 
\bibstyle{unsrt}
\@writefile{toc}{\contentsline {section}{\numberline {1}Introduction and Background}{1}}
\citation{taddei.shellchoice}
\@writefile{toc}{\contentsline {section}{\numberline {2}Components}{2}}
\@writefile{toc}{\contentsline {subsection}{\numberline {2.1}Overview of the components}{2}}
\@writefile{toc}{\contentsline {subsection}{\numberline {2.2}Shells}{2}}
\citation{www.shells}
\citation{www.umtfX11}
\@writefile{toc}{\contentsline {subsection}{\numberline {2.3}levels}{3}}
\@writefile{toc}{\contentsline {subsection}{\numberline {2.4}X11}{3}}
\@writefile{lof}{\contentsline {figure}{\numberline {1}{\ignorespaces Levels - Mechanical aspects}}{4}}
\newlabel{mechanical}{{1}{4}}
\@writefile{toc}{\contentsline {section}{\numberline {3}Project status \& Future Plans}{4}}
\@writefile{toc}{\contentsline {section}{\numberline {4}Conclusion}{4}}
\bibcite{www.shells}{1}
\bibcite{www.umtfX11}{2}
\bibcite{taddei.shellchoice}{3}
\bibcite{taddei}{4}
\@writefile{lof}{\contentsline {figure}{\numberline {2}{\ignorespaces Project history}}{5}}
\newlabel{history}{{2}{5}}
\@writefile{toc}{\contentsline {section}{\numberline {5}Acknowledgments}{5}}
