%!PS-Adobe-2.0
%%Title: xsession-light.fig
%%Creator: fig2dev Version 3.1 Patchlevel 1
%%CreationDate: Fri Aug 30 20:45:49 1996
%%For: taddei@hpplus09 (Arnaud Taddei)
%%Orientation: Landscape
%%BoundingBox: 46 -13 566 805
%%Pages: 1
%%BeginSetup
%%IncludeFeature: *PageSize Letter
%%EndSetup
%%EndComments
/$F2psDict 200 dict def
$F2psDict begin
$F2psDict /mtrx matrix put
/col-1 {} def
/col0 {0.000 0.000 0.000 srgb} bind def
/col1 {0.000 0.000 1.000 srgb} bind def
/col2 {0.000 1.000 0.000 srgb} bind def
/col3 {0.000 1.000 1.000 srgb} bind def
/col4 {1.000 0.000 0.000 srgb} bind def
/col5 {1.000 0.000 1.000 srgb} bind def
/col6 {1.000 1.000 0.000 srgb} bind def
/col7 {1.000 1.000 1.000 srgb} bind def
/col8 {0.000 0.000 0.560 srgb} bind def
/col9 {0.000 0.000 0.690 srgb} bind def
/col10 {0.000 0.000 0.820 srgb} bind def
/col11 {0.530 0.810 1.000 srgb} bind def
/col12 {0.000 0.560 0.000 srgb} bind def
/col13 {0.000 0.690 0.000 srgb} bind def
/col14 {0.000 0.820 0.000 srgb} bind def
/col15 {0.000 0.560 0.560 srgb} bind def
/col16 {0.000 0.690 0.690 srgb} bind def
/col17 {0.000 0.820 0.820 srgb} bind def
/col18 {0.560 0.000 0.000 srgb} bind def
/col19 {0.690 0.000 0.000 srgb} bind def
/col20 {0.820 0.000 0.000 srgb} bind def
/col21 {0.560 0.000 0.560 srgb} bind def
/col22 {0.690 0.000 0.690 srgb} bind def
/col23 {0.820 0.000 0.820 srgb} bind def
/col24 {0.500 0.190 0.000 srgb} bind def
/col25 {0.630 0.250 0.000 srgb} bind def
/col26 {0.750 0.380 0.000 srgb} bind def
/col27 {1.000 0.500 0.500 srgb} bind def
/col28 {1.000 0.630 0.630 srgb} bind def
/col29 {1.000 0.750 0.750 srgb} bind def
/col30 {1.000 0.880 0.880 srgb} bind def
/col31 {1.000 0.840 0.000 srgb} bind def

end
save
20.0 -31.0 translate
 90 rotate
1 -1 scale

/clp {closepath} bind def
/ef {eofill} bind def
/gr {grestore} bind def
/gs {gsave} bind def
/l {lineto} bind def
/m {moveto} bind def
/n {newpath} bind def
/s {stroke} bind def
/slc {setlinecap} bind def
/slj {setlinejoin} bind def
/slw {setlinewidth} bind def
/srgb {setrgbcolor} bind def
/rot {rotate} bind def
/sc {scale} bind def
/tr {translate} bind def
/tnt {dup dup currentrgbcolor
  4 -2 roll dup 1 exch sub 3 -1 roll mul add
  4 -2 roll dup 1 exch sub 3 -1 roll mul add
  4 -2 roll dup 1 exch sub 3 -1 roll mul add srgb}
  bind def
/shd {dup dup currentrgbcolor 4 -2 roll mul 4 -2 roll mul
  4 -2 roll mul srgb} bind def
/$F2psBegin {$F2psDict begin /$F2psEnteredState save def} def
/$F2psEnd {$F2psEnteredState restore end} def
%%EndProlog

$F2psBegin
10 setmiterlimit
 0.06000 0.06000 sc
7.500 slw
% Polyline
n 5027 3677 m 2027 4277 l  2027 4877 l  2327 5177 l  2627 4877 l  2627 4727 l 
 5027 4202 l  clp gs col6 0.30 tnt ef gr  gs col-1 s gr 
% Polyline
n 5027 452 m 5027 8702 l  5327 9077 l  5627 8702 l  5627 452 l  clp gs col1 0.80 tnt ef gr  gs col-1 s gr 
/Times-Bold findfont 300.00 scalefont setfont
4728 7653 m
gs 1 -1 sc (HX_WM) col-1 show gr
% Polyline
n 3933 6678 m 3828 6678 3828 6948 105 arcto 4 {pop} repeat 3828 7053 6798 7053 105 arcto 4 {pop} repeat 6903 7053 6903 6783 105 arcto 4 {pop} repeat 6903 6678 3933 6678 105 arcto 4 {pop} repeat clp  gs col-1 s gr 
/Times-Bold findfont 300.00 scalefont setfont
3903 6978 m
gs 1 -1 sc (HX_ROOT_WINDOW) col-1 show gr
% Polyline
n 4083 8027 m 3978 8027 3978 8297 105 arcto 4 {pop} repeat 3978 8402 6573 8402 105 arcto 4 {pop} repeat 6678 8402 6678 8132 105 arcto 4 {pop} repeat 6678 8027 4083 8027 105 arcto 4 {pop} repeat clp  gs col-1 s gr 
/Times-Bold findfont 300.00 scalefont setfont
4053 8327 m
gs 1 -1 sc (HX_LAST_CLIENT) col-1 show gr
% Polyline
n 4294 3754 m 4204 3754 4204 4039 90 arcto 4 {pop} repeat 4204 4129 6288 4129 90 arcto 4 {pop} repeat 6378 4129 6378 3844 90 arcto 4 {pop} repeat 6378 3754 4294 3754 90 arcto 4 {pop} repeat clp  gs col-1 s gr 
/Times-Bold findfont 300.00 scalefont setfont
4279 4054 m
gs 1 -1 sc (HX_DESKTOP) col-1 show gr
% Polyline
n 2102 2852 m 1802 3227 l gs col2 1.00 shd ef gr  gs col-1 s gr 
n 1900.39 3152.04 m 1802.00 3227.00 l 1853.54 3114.55 l  1877.46 3133.80 l 1900.39 3152.04 l clp gs 0.00 setgray ef gr gs col-1 s gr
% Polyline
n 2552 2852 m 2852 3227 l gs col2 1.00 shd ef gr  gs col-1 s gr 
n 2800.46 3114.55 m 2852.00 3227.00 l 2753.61 3152.04 l  2777.54 3133.80 l 2800.46 3114.55 l clp gs 0.00 setgray ef gr gs col-1 s gr
% Polyline
n 2027 5102 m 1427 5477 l gs col2 1.00 shd ef gr  gs col-1 s gr 
n 1544.66 5438.84 m 1427.00 5477.00 l 1512.86 5387.96 l  1529.26 5413.90 l 1544.66 5438.84 l clp gs 0.00 setgray ef gr gs col-1 s gr
% Polyline
n 2627 5102 m 3227 5477 l gs col2 1.00 shd ef gr  gs col-1 s gr 
n 3141.14 5387.96 m 3227.00 5477.00 l 3109.34 5438.84 l  3125.74 5413.90 l 3141.14 5387.96 l clp gs 0.00 setgray ef gr gs col-1 s gr
% Polyline
n 2327 5252 m 2327 5477 l gs col2 1.00 shd ef gr  gs col-1 s gr 
n 2357.00 5357.00 m 2327.00 5477.00 l 2297.00 5357.00 l  2327.50 5357.50 l 2357.00 5357.00 l clp gs 0.00 setgray ef gr gs col-1 s gr
% Polyline
n 5102 5627 m 2327 6227 l gs col2 1.00 shd ef gr  gs col-1 s gr 
n 2450.63 6230.96 m 2327.00 6227.00 l 2437.95 6172.32 l  2444.79 6202.14 l 2450.63 6230.96 l clp gs 0.00 setgray ef gr gs col-1 s gr
% Polyline
n 4758 7353 m 4653 7353 4653 7623 105 arcto 4 {pop} repeat 4653 7728 5823 7728 105 arcto 4 {pop} repeat 5928 7728 5928 7458 105 arcto 4 {pop} repeat 5928 7353 4758 7353 105 arcto 4 {pop} repeat clp  gs col-1 s gr 
/Times-Bold findfont 300.00 scalefont setfont
4353 5553 m
gs 1 -1 sc (HX_STARTUP) col-1 show gr
% Polyline
n 4383 5253 m 4278 5253 4278 5523 105 arcto 4 {pop} repeat 4278 5628 6198 5628 105 arcto 4 {pop} repeat 6303 5628 6303 5358 105 arcto 4 {pop} repeat 6303 5253 4383 5253 105 arcto 4 {pop} repeat clp  gs col-1 s gr 
% Polyline
n 5027 1427 m 2027 2027 l  2027 2627 l  2327 2927 l  2627 2627 l  2627 2477 l 
 5027 1952 l  clp gs col4 0.80 tnt ef gr  gs col-1 s gr 
/Times-Roman findfont 210.00 scalefont setfont
8327 977 m
gs 1 -1 sc (check /etc/nologin, run xhost -, create ~/.hepix/xsession.log) col-1 show gr
/Times-Roman findfont 300.00 scalefont setfont
1127 3527 m
gs 1 -1 sc (Failsafe) col-1 show gr
/Times-Roman findfont 300.00 scalefont setfont
2477 3527 m
gs 1 -1 sc (Xforward) col-1 show gr
/Times-Roman findfont 300.00 scalefont setfont
302 5777 m
gs 1 -1 sc (COSE/CDE) col-1 show gr
/Times-Roman findfont 300.00 scalefont setfont
1877 5777 m
gs 1 -1 sc (HP-VUE) col-1 show gr
/Times-Roman findfont 300.00 scalefont setfont
3152 5777 m
gs 1 -1 sc (etc.) col-1 show gr
/Times-Roman findfont 300.00 scalefont setfont
1652 6452 m
gs 1 -1 sc ($HOME/.xsession) col-1 show gr
/Times-Roman findfont 300.00 scalefont setfont
5777 1502 m
gs 1 -1 sc (Process options) col-1 show gr
/Times-Roman findfont 300.00 scalefont setfont
5777 977 m
gs 1 -1 sc (Prelimnary tasks) col-1 show gr
/Times-Roman findfont 300.00 scalefont setfont
5777 2102 m
gs 1 -1 sc (Get Information) col-1 show gr
/Times-Roman findfont 300.00 scalefont setfont
5777 2702 m
gs 1 -1 sc (Process Information) col-1 show gr
/Times-Roman findfont 300.00 scalefont setfont
5777 3302 m
gs 1 -1 sc (Use Information) col-1 show gr
/Times-Roman findfont 300.00 scalefont setfont
5777 4727 m
gs 1 -1 sc (Start mandatory clients) col-1 show gr
/Times-Roman findfont 300.00 scalefont setfont
5777 6227 m
gs 1 -1 sc (Start normal clients, set keymapping, etc.) col-1 show gr
/Times-Roman findfont 210.00 scalefont setfont
8327 1502 m
gs 1 -1 sc (Xforward, failsafe) col-1 show gr
/Times-Roman findfont 210.00 scalefont setfont
8327 2102 m
gs 1 -1 sc (From xinfo, from the files xprofile, from the HEPiX shell scripts...) col-1 show gr
/Times-Roman findfont 210.00 scalefont setfont
8327 2702 m
gs 1 -1 sc (Provide the Major switchs values ) col-1 show gr
showpage
%%Page: 1 1
$F2psEnd
restore
